<?xml version="1.0" encoding="UTF-8"?>
<svg width="144px" height="144px" viewBox="0 0 144 144" version="1.1" xmlns="http://www.w3.org/2000/svg" xmlns:xlink="http://www.w3.org/1999/xlink">
    <!-- Generator: Sketch 41.2 (35397) - http://www.bohemiancoding.com/sketch -->
    <title>fur_active</title>
    <desc>Created with Sketch.</desc>
    <defs></defs>
    <g id="brush" stroke="none" stroke-width="1" fill="none" fill-rule="evenodd">
        <path d="M80.992969,71.199 C91.4281429,60.8985 99.2758976,57.375 117.626324,61.6455 C119.723259,59.7105 121.685197,57.8475 123.345645,56.196 C144.229493,35.3205 141.76807,13.4775 144,0 C130.518421,2.241 83.7603825,0.3195 62.8990344,21.195 C44.4541108,39.6495 26.8236618,88.182 22.4992969,108 L0,144 L13.4995781,144 L31.4990157,112.5 C47.4060186,108.351 82.3699259,91.863 104.567732,73.1655 C100.684354,70.794 85.8483172,69.354 80.992969,71.199 L80.992969,71.199 Z M35.1259023,99.2745 C43.3426455,87.012 69.7433205,36.2925 121.469204,13.1265 C115.51589,19.827 48.350989,81.837 35.1259023,99.2745 C33.8704415,101.1375 33.1819631,102.2265 33.1819631,102.2265 C33.5329521,101.4885 34.2124309,100.476 35.1259023,99.2745 Z" id="fur_active" fill="#7E57C2"></path>
    </g>
</svg>
