<?xml version="1.0" encoding="UTF-8"?>
<svg width="144px" height="144px" viewBox="0 0 144 144" version="1.1" xmlns="http://www.w3.org/2000/svg" xmlns:xlink="http://www.w3.org/1999/xlink">
    <!-- Generator: Sketch 41.2 (35397) - http://www.bohemiancoding.com/sketch -->
    <title>mirror_web</title>
    <desc>Created with Sketch.</desc>
    <defs></defs>
    <g id="brush" stroke="none" stroke-width="1" fill="none" fill-rule="evenodd">
        <path d="M141.517241,69.6028378 L137.296552,69.6028378 L107.006897,11.1129635 L110.97931,3.5264108 C111.724138,2.30277326 111.227586,0.834408216 109.986207,0.344953202 C108.744828,-0.38922932 107.255172,0.100225694 106.758621,1.32386323 L103.034483,8.66568845 L40.7172414,8.66568845 L37.4896552,2.54750077 C36.7448276,1.32386323 35.2551724,0.834408216 34.0137931,1.56859074 C32.7724138,2.30277326 32.2758621,3.7711383 33.0206897,4.99477584 L37.2413793,12.0918736 L7.44827586,69.6028378 L2.48275862,69.6028378 C0.993103448,69.6028378 0,70.5817478 0,72.0501128 C0,73.5184779 0.993103448,74.4973879 2.48275862,74.4973879 L7.44827586,74.4973879 L38.2344828,133.966172 L35.0068966,140.573815 C34.5103448,141.797452 35.0068966,143.265817 36.2482759,143.755272 C36.4965517,144 36.9931034,144 37.2413793,144 C38.2344828,144 38.9793103,143.510545 39.4758621,142.531635 L42.9517241,135.679265 L104.027586,135.679265 L106.758621,140.818542 C107.255172,141.552725 108,142.04218 108.993103,142.04218 C109.489655,142.04218 109.737931,142.04218 110.234483,141.797452 C111.475862,141.06327 111.972414,139.594905 111.227586,138.615995 L107.751724,132.008352 L137.544828,74.4973879 L141.517241,74.4973879 C143.006897,74.4973879 144,73.5184779 144,72.0501128 C144,70.5817478 143.006897,69.6028378 141.517241,69.6028378 Z M131.834483,69.6028378 L118.924138,69.6028378 L97.3241379,29.7122541 L104.275862,16.4969687 L131.834483,69.6028378 Z M72.4965517,66.9108352 L64.5517241,52.4719123 L79.6965517,52.4719123 L72.4965517,66.9108352 Z M68.2758621,69.6028378 L49.6551724,69.6028378 L59.5862069,53.4508223 L68.2758621,69.6028378 Z M67.0344828,74.4973879 L59.337931,90.4046759 L49.4068966,74.4973879 L67.0344828,74.4973879 Z M72.2482759,75.2315704 L80.937931,91.6283134 L64.3034483,91.6283134 L72.2482759,75.2315704 Z M77.462069,74.4973879 L95.337931,74.4973879 L85.6551724,90.1599484 L77.462069,74.4973879 Z M76.4689655,69.6028378 L84.9103448,53.2060948 L95.0896552,69.6028378 L76.4689655,69.6028378 Z M82.4275862,47.5773621 L62.0689655,47.5773621 L54.1241379,32.8937117 L90.1241379,32.8937117 L82.4275862,47.5773621 Z M56.8551724,48.5562721 L56.6068966,48.8009997 L43.6965517,69.6028378 L31.2827586,69.6028378 L49.6551724,35.5857143 L56.8551724,48.5562721 Z M43.6965517,74.4973879 L56.6068966,95.299226 C56.6068966,95.299226 56.6068966,95.5439536 56.8551724,95.5439536 L50.1517241,109.248694 L31.2827586,74.4973879 L43.6965517,74.4973879 Z M61.8206897,96.5228636 L83.1724138,96.5228636 L90.8689655,111.206514 L54.6206897,111.206514 L61.8206897,96.5228636 Z M88.137931,95.299226 L101.048276,74.4973879 L113.462069,74.4973879 L95.0896552,108.269784 L88.137931,95.299226 Z M101.048276,69.6028378 L88.137931,48.8009997 C87.8896552,48.5562721 87.8896552,48.3115446 87.6413793,48.3115446 L94.5931034,35.0962592 L113.462069,69.6028378 L101.048276,69.6028378 Z M100.303448,13.3155111 L92.6068966,27.9991615 L51.3931034,27.9991615 L43.4482759,13.3155111 L100.303448,13.3155111 Z M39.9724138,17.4758787 L46.9241379,30.4464366 L25.5724138,69.6028378 L12.9103448,69.6028378 L39.9724138,17.4758787 Z M12.9103448,74.4973879 L25.5724138,74.4973879 L47.4206897,114.632699 L40.9655172,128.33744 L12.9103448,74.4973879 Z M45.1862069,130.784715 L52.3862069,116.101064 L93.6,116.101064 L101.296552,130.784715 L45.1862069,130.784715 Z M104.772414,126.624347 L97.8206897,113.653789 L118.924138,74.4973879 L131.834483,74.4973879 L104.772414,126.624347 Z" id="mirror_web" fill="#BCBCBC"></path>
    </g>
</svg>