<?xml version="1.0" encoding="UTF-8"?>
<svg width="144px" height="144px" viewBox="0 0 144 144" version="1.1" xmlns="http://www.w3.org/2000/svg" xmlns:xlink="http://www.w3.org/1999/xlink">
    <!-- Generator: Sketch 42 (36781) - http://www.bohemiancoding.com/sketch -->
    <title>shadow_active</title>
    <desc>Created with Sketch.</desc>
    <defs></defs>
    <g id="brush" stroke="none" stroke-width="1" fill="none" fill-rule="evenodd">
        <g id="shadow_active">
            <path d="M0,0 L0,36 L36,36 L36,0 L0,0 Z M108,0 L72,0 L72,36 L108,36 L108,0 Z M144,72 L144,36 L108,36 L108,72 L144,72 Z M72,36 L36,36 L36,72 L72,72 L72,36 Z M0,72 L0,108 L36,108 L36,72 L0,72 Z M72,72 L72,108 L108,108 L108,72 L72,72 Z M36,144 L72,144 L72,108 L36,108 L36,144 Z M144,144 L144,108 L108,108 L108,144 L144,144 Z" id="Shape" fill="#B288FB"></path>
            <path d="M108,0 L72,0 L72,36 L108,36 L108,0 Z M72,36 L36,36 L36,72 L72,72 L72,36 Z M0,72 L0,108 L36,108 L36,72 L0,72 Z M144,144 L144,108 L108,108 L108,144 L144,144 Z" id="Shape-Copy" fill="#7E57C2"></path>
        </g>
    </g>
</svg>