<?xml version="1.0" encoding="UTF-8"?>
<svg width="144px" height="144px" viewBox="0 0 144 144" version="1.1" xmlns="http://www.w3.org/2000/svg" xmlns:xlink="http://www.w3.org/1999/xlink">
    <!-- Generator: Sketch 41.2 (35397) - http://www.bohemiancoding.com/sketch -->
    <title>symmetry_web</title>
    <desc>Created with Sketch.</desc>
    <defs></defs>
    <g id="brush" stroke="none" stroke-width="1" fill="none" fill-rule="evenodd">
        <path d="M1.26042478e-14,42.2279046 C1.39597444,40.6196925 1.93739657,40.5009655 4.00127922,41.3567255 C6.37674954,42.3435478 8.73679472,43.3735437 11.1431153,44.2786448 C11.6398046,44.4652159 12.4542515,44.3881204 12.8799852,44.087448 C25.0627544,35.5144287 35.4346131,25.1188719 44.078857,12.9886665 C44.5570361,12.3179356 44.5570361,11.7921443 44.2454484,11.0766981 C43.1656892,8.59113932 42.0859299,6.09787095 41.1465394,3.55526146 C40.8858547,2.8475248 40.8503769,1.82523851 41.1820172,1.19305544 C41.4828073,0.621006853 42.4777283,0.00886860838 43.0685108,0.0936736549 C43.8042896,0.200065441 44.7359676,0.858460984 45.0660654,1.53227563 C46.1982701,3.83588907 47.1762235,6.22430756 48.0631686,8.63585471 C48.521295,9.88017602 49.161438,10.4152188 50.5265621,10.5956222 C58.0077511,11.5886122 65.5043652,12.7080388 73.0518823,12.3533996 C80.1983459,12.0157213 87.3170443,11.1152459 94.4419127,10.3982578 C94.8537637,10.3566262 95.3705057,9.81541581 95.5617773,9.38368102 C96.6569617,6.90274794 97.6534252,4.37864137 98.7115892,1.88228918 C99.3918376,0.275619027 100.531755,-0.344228767 101.728745,0.184646341 C103.089242,0.785991217 103.521145,2.00255816 102.876375,3.58147393 C101.830551,6.13487679 100.72025,8.66206717 99.7265629,11.2355149 C99.5538014,11.6903783 99.6370972,12.4474561 99.916292,12.8437269 C108.571334,25.0787823 119.031116,35.5252221 131.274043,44.172253 C131.656586,44.4436292 132.424758,44.4528806 132.890597,44.2709353 C135.420318,43.2933644 137.910243,42.2094017 140.419603,41.1794058 C142.022275,40.5225522 143.296391,40.9434936 143.825473,42.2664523 C144.325247,43.5169413 143.722124,44.668748 142.170356,45.3225178 C139.671485,46.3756423 137.144848,47.3686323 134.667572,48.4741817 C134.214073,48.6761719 133.698873,49.2559301 133.631311,49.7231288 C132.481831,57.4157175 131.332967,65.1422282 131.69083,72.9242476 C132.020928,80.1126317 132.927925,87.2763453 133.643651,94.4462265 C133.685299,94.8579165 134.217158,95.3821658 134.646285,95.5702789 C137.126646,96.6684271 139.647113,97.6706686 142.148761,98.7237931 C143.703614,99.3791048 144.32247,100.51981 143.839355,101.764131 C143.325698,103.08709 142.03153,103.528384 140.445826,102.880474 C137.934615,101.853562 135.420318,100.831276 132.935329,99.7426871 C132.190296,99.4158022 131.687436,99.5283617 131.042357,99.9893927 C118.961702,108.619463 108.605269,118.964136 99.9730565,131.041917 C99.4643357,131.755513 99.4396555,132.295181 99.7786999,133.066136 C100.852289,135.505438 101.852146,137.977428 102.860641,140.444484 C103.508497,142.035426 103.072274,143.319837 101.743862,143.836686 C100.497511,144.323929 99.3594448,143.708707 98.7038767,142.154462 C97.6657653,139.698199 96.6150053,137.248104 95.640137,134.767171 C95.3270068,133.970004 94.8861565,133.655454 94.0362318,133.512057 C80.0129358,131.149851 65.9917994,131.066588 51.917909,133.154334 C49.5115885,133.512057 48.1788571,134.341913 47.5155764,136.672972 C46.9972919,138.504761 46.0933792,140.228616 45.3468028,141.995645 C44.6141091,143.731836 43.4556817,144.371728 42.1383754,143.787653 C40.802559,143.195559 40.4971414,142.000579 41.2344627,140.211655 C42.2340112,137.790857 43.2104221,135.361115 44.2547035,132.960053 C44.5678337,132.239981 44.5539511,131.721899 44.078857,131.054252 C35.4839735,119.008543 25.1846129,108.67343 13.1391274,100.072656 C12.3555307,99.5129426 11.746238,99.4188861 10.8654629,99.8151569 C8.60722361,100.832817 6.29653885,101.740694 4.00744927,102.688969 C1.93431154,103.547812 1.40677203,103.432169 1.09602154e-15,101.827041 L1.09602154e-15,100.140192 C0.780511675,99.5912716 1.49932282,98.9082055 2.35387513,98.5211861 C4.60594439,97.495816 6.90428905,96.5675862 9.20880376,95.6701946 C9.99857051,95.3618126 10.3317534,94.9408712 10.4782921,94.0774017 C12.9848761,79.3259493 12.9848761,64.5806646 10.3996239,49.8446313 C10.3101582,49.3311753 9.80112882,48.6943665 9.32449225,48.4769572 C7.03077513,47.4330842 4.65530481,46.5649889 2.36004518,45.5257416 C1.50549288,45.1402641 0.783596702,44.4602818 0,43.9159876 C1.26042478e-14,43.3534988 1.26042478e-14,42.7907017 1.26042478e-14,42.2279046 Z M128.957188,93.2296596 C126.569377,78.9885794 126.585111,65.0219592 128.949784,50.8225106 C126.214908,51.9588982 123.786992,53.0320675 121.306631,53.9680069 C120.381123,54.3164785 119.96341,54.8715661 119.841243,55.7689577 C119.304449,59.7501691 118.582553,63.7175034 118.27405,67.7156758 C117.731085,74.7529528 118.406706,81.7331791 119.958474,88.617807 C120.061823,89.0819218 120.455164,89.66168 120.868557,89.8451673 C123.425736,90.980013 126.026413,92.0177184 128.957188,93.2296596 Z M50.7764493,15.0810382 C51.9333342,17.8672695 53.0053808,20.3004034 53.9447714,22.7859622 C54.2764117,23.661767 54.7962386,24.0472445 55.6430784,24.1783069 C58.46125,24.6162093 61.265539,25.1620454 64.0945082,25.4843046 C72.3037634,26.4156182 80.445148,25.8805754 88.5060135,24.1089209 C88.9533423,24.0102387 89.5564649,23.731153 89.7171948,23.3734299 C90.8938239,20.7336801 91.9782106,18.0538406 93.2171572,15.0887478 C79.0260359,17.44787 65.0554939,17.4632891 50.7764493,15.0810382 Z M127.161703,97.3709213 C124.153802,96.1219742 121.534614,95.0056314 118.884577,93.9682344 C118.543681,93.8353218 117.971409,93.9851954 117.631748,94.2026047 C108.080506,100.283898 100.259964,108.106007 94.1670369,117.648887 C93.9816268,117.938458 93.7490158,118.390238 93.8492792,118.644653 C94.9413785,121.407755 96.0982634,124.146187 97.3507841,127.171415 C105.699174,115.510258 115.503388,105.723447 127.161703,97.3709213 Z M127.164788,46.6824824 C115.481793,38.3129953 105.692695,28.5187833 97.3492416,16.883531 C96.1028909,19.8887134 94.9660587,22.5885977 93.8850655,25.3085269 C93.778632,25.5768192 93.9359684,26.0363083 94.1133574,26.316936 C100.226029,35.9014481 108.071251,43.762105 117.662906,49.8726941 C117.974494,50.0700585 118.49247,50.2304172 118.796654,50.1116901 C121.485254,49.0539399 124.147632,47.9314294 127.164788,46.6824824 Z M15.1629047,50.8780193 C17.418059,65.0620488 17.4149739,79.0317529 15.1629047,93.1818604 C17.769752,92.0951222 20.1529349,91.030896 22.5916482,90.1180853 C23.5634315,89.7541946 24.0107604,89.1960232 24.1372464,88.2307876 C24.670956,84.1539777 25.3990222,80.0925869 25.719865,76.0003579 C26.2628296,69.0987691 25.5008281,62.2634823 24.030813,55.5130006 C23.9212946,55.010338 23.4971035,54.3796968 23.0513171,54.1807904 C20.5401057,53.0536543 17.9764487,52.0406194 15.1629047,50.8780193 Z M93.1600843,128.836986 C92.0451557,126.157455 90.9808216,123.765952 90.0645688,121.321717 C89.7156523,120.38917 89.157571,119.994132 88.2626049,119.874172 C84.2801443,119.336045 80.3124919,118.619057 76.3112127,118.296798 C69.2696399,117.727833 62.2928528,118.475659 55.4009038,119.972854 C54.9659151,120.067219 54.3982702,120.390711 54.2347638,120.761078 C53.0794215,123.357655 52.0150874,125.995862 50.8350648,128.824959 C64.9891658,126.591965 78.9597078,126.568836 93.1600843,128.836986 Z M46.8800609,126.601216 C47.9073747,124.123367 49.0179842,121.50983 50.048383,118.863912 C50.1794967,118.527776 49.9959376,117.955727 49.7738157,117.610648 C43.6793461,108.082878 35.8649742,100.268787 26.3214451,94.1921198 C26.0098575,93.9916715 25.494658,93.8158937 25.1954105,93.9346208 C22.5191501,94.9877453 19.8691124,96.1117976 17.3918362,97.1387096 C22.6039883,101.759814 27.9996995,106.111392 32.8771262,110.985061 C37.7931157,115.898819 42.1939059,121.329426 46.8800609,126.601216 Z M46.6918743,17.0130514 C38.2728373,28.5557892 28.4609109,38.3422916 16.9691876,46.7349073 C19.8521448,47.9360552 22.4250568,49.035437 25.025734,50.0608071 C25.374342,50.1980371 25.954327,50.0870195 26.2875098,49.874236 C35.8711443,43.7713564 43.7194514,35.9245768 49.8262611,26.3477742 C50.039128,26.0116378 50.1609865,25.4349635 50.0252453,25.0880337 C49.0010166,22.4852898 47.9012047,19.9118421 46.6918743,17.0130514 Z M28.8712194,87.4922127 C31.7171563,86.3061756 34.2715581,85.2761797 36.7858546,84.1570615 C37.1653129,83.9889933 37.4861556,83.4416153 37.6203543,83.0037129 C39.870881,75.6888921 39.8523708,68.363278 37.6296093,61.0438316 C37.5139208,60.6645217 37.3380743,60.1310209 37.0449968,60.0015004 C34.4196394,58.8466099 31.7603466,57.7672729 28.8635069,56.5630413 C30.8610614,66.96014 30.8471788,77.0889464 28.8712194,87.4922127 Z M115.074569,56.584628 C112.296503,57.7348928 109.780664,58.7371343 107.308015,59.8395999 C106.886909,60.0277129 106.508993,60.5951358 106.362455,61.0654183 C104.1073,68.3771552 104.116864,75.7012274 106.356285,83.0175901 C106.470431,83.3968999 106.655532,83.9214577 106.951695,84.0522116 C109.570882,85.2021681 112.224005,86.2802715 115.085367,87.470626 C113.12946,77.0642758 113.146428,66.9370113 115.074569,56.584628 Z M56.5454486,28.9566858 C57.7054185,31.7490847 58.7543275,34.3364095 59.8772771,36.8882705 C60.0284434,37.2352002 60.5313027,37.5250793 60.9323561,37.6484321 C68.2932291,39.9150397 75.6664421,39.927375 83.0304001,37.6592254 C83.4329961,37.5343307 83.9494295,37.2598708 84.1009043,36.9175668 C85.2297154,34.3564544 86.2789329,31.7614199 87.4419879,28.9597696 C77.0917243,30.8917827 66.9173073,30.9056599 56.5454486,28.9566858 Z M87.4712956,115.13249 C86.285103,112.293834 85.2516191,109.740431 84.1286695,107.22681 C83.9589931,106.846266 83.4160284,106.520615 82.9791887,106.386469 C75.6633571,104.136822 68.3330259,104.141448 61.0122583,106.378759 C60.6019498,106.505196 60.0589852,106.750359 59.9109039,107.086804 C58.7725292,109.669503 57.7143651,112.287358 56.535885,115.127556 C66.9188498,113.152678 77.051619,113.148052 87.4712956,115.13249 Z M91.5975184,113.308411 C97.5485343,104.650586 104.687285,97.5331302 113.291424,91.6168218 C110.5149,90.458539 107.992583,89.3810524 105.441574,88.3738768 C105.083711,88.2320211 104.520694,88.3279279 104.159746,88.5172744 C97.3387525,92.1056072 92.1065477,97.2999934 88.5263746,104.127571 C88.3196779,104.5223 88.2255846,105.139064 88.3798359,105.535334 C89.3670443,108.055124 90.4406335,110.540682 91.5975184,113.308411 Z M52.3744929,30.7005859 C46.4265621,39.4262542 39.2693009,46.5252076 30.6713323,52.4183874 C33.4401435,53.5779036 35.9235897,54.6572406 38.4455988,55.6348115 C38.8744175,55.7997959 39.5454107,55.6641078 39.9819419,55.4343632 C46.7165545,51.8848865 51.8685486,46.7302816 55.416329,39.995219 C55.6291958,39.5912386 55.7834471,38.9775584 55.6322808,38.5905391 C54.6358173,36.0325105 53.549888,33.5114877 52.3744929,30.7005859 Z M91.5944334,30.7483851 C90.4437185,33.4976105 89.3667358,35.9816274 88.3887825,38.5041921 C88.2237335,38.9297592 88.3551557,39.6004901 88.5865326,40.0322248 C91.9134251,46.2307028 96.5394222,51.1678984 102.660115,54.7297104 C104.22268,55.6378953 105.477052,55.9231487 107.139881,55.04426 C109.034088,54.0435604 111.088715,53.3466171 113.285254,52.4291807 C104.644095,46.4727826 97.5454493,39.3707455 91.5944334,30.7483851 Z M52.380663,113.343566 C53.5591431,110.508302 54.6543274,107.946882 55.6693011,105.352156 C55.8050423,105.006768 55.6291958,104.448288 55.4317541,104.075146 C51.8531235,97.3015353 46.6733642,92.1160922 39.8832211,88.5558222 C39.5438682,88.3769606 39.0440939,88.1950152 38.7386763,88.3171345 C36.1133189,89.3471304 33.5157266,90.449596 30.6667048,91.6322409 C39.3433415,97.5670522 46.4682099,104.698386 52.380663,113.343566 Z M62.2157271,42.6072144 C63.4158024,45.4936698 64.4400311,47.990022 65.5043652,50.472497 C65.6370214,50.7855047 65.9270138,51.0969705 66.2231764,51.2650387 C70.033184,53.4113774 73.8647867,53.4468413 77.6933045,51.3082122 C77.9663293,51.157105 78.2887146,50.9427796 78.4028605,50.6760291 C79.5011299,48.110291 80.5577515,45.5275919 81.7747944,42.5933372 C75.185178,44.3048573 68.8593314,44.2863544 62.2157271,42.6072144 Z M101.4187,81.7917717 C99.732733,75.1846876 99.7416795,68.8582311 101.414072,62.2665661 C98.5141475,63.4630882 95.9332145,64.5162127 93.3698661,65.607885 C93.1030113,65.7204444 92.8793469,66.0319102 92.7266381,66.3032863 C90.5933423,70.1256811 90.6041399,73.9557854 92.7420632,77.7750963 C92.8747193,78.0113169 93.0459383,78.3024295 93.2726877,78.3983363 C95.873365,79.5051192 98.4863823,80.5767466 101.4187,81.7917717 Z M85.9210698,99.6686755 C89.3704378,93.9053245 93.8403326,89.4026391 99.6667134,85.9521531 C96.8007239,84.7695081 94.187398,83.6744437 91.554328,82.6277952 C91.253538,82.5075263 90.8234853,82.6031247 90.4853664,82.7048907 C86.5025973,83.8933949 83.894516,86.4856539 82.6941322,90.4591558 C82.5679547,90.872696 82.5275408,91.4043466 82.6817921,91.7898241 C83.6936808,94.3506281 84.76727,96.8870699 85.9210698,99.6686755 Z M85.7884137,44.6980443 C84.7765251,47.1373458 83.718361,49.6321561 82.7188125,52.150095 C82.5630186,52.5417402 82.552221,53.0706153 82.6728456,53.4792214 C83.8682933,57.5807018 86.5411601,60.2235355 90.6568938,61.3861356 C90.9515139,61.4693987 91.3248021,61.5279913 91.5898058,61.4200576 C94.2046742,60.368475 96.8050429,59.2798866 99.331988,58.2329297 C96.7942453,56.1590609 94.1645688,54.324188 91.9310097,52.0915025 C89.6971421,49.8588169 87.8615514,47.2298604 85.7884137,44.6980443 Z M42.557939,81.8102746 C45.4732889,80.5955579 47.9737028,79.5640202 50.4602341,78.5001023 C50.7332589,78.3829172 50.9985712,78.1207925 51.1481949,77.8571259 C53.3586164,73.9437585 53.312341,70.0211396 51.1204297,66.1170236 C50.9939436,65.8903629 50.7579391,65.6698697 50.5219346,65.5696456 C47.9906704,64.4964763 45.4486087,63.4495194 42.5733641,62.2576231 C44.2331083,68.8351025 44.2547035,75.1646428 42.557939,81.8102746 Z M81.7593693,101.438788 C80.907902,99.3649192 80.0042977,97.7366623 79.5770216,95.9896784 C78.8782631,93.1263516 76.8325821,92.0978977 74.3185941,91.4903852 C74.0008364,91.4132897 73.6799937,91.3435953 73.3591509,91.2837692 C70.8170892,90.8054688 68.463214,91.5828998 66.3916188,92.8410983 C65.472281,93.3977278 65.0450048,94.8391052 64.5082102,95.9357115 C63.9343953,97.109105 63.4901515,98.3454084 63.0011748,99.5591999 C62.7867655,100.088075 62.6016639,100.626202 62.2993313,101.443105 C68.8793841,99.7380614 75.1759229,99.7858606 81.7593693,101.438788 Z M58.1928527,44.6810833 C56.1397676,47.1990222 54.3149745,49.8356882 52.0829579,52.0637481 C49.8200911,54.324188 47.1515433,56.1821895 44.6434168,58.2313878 C47.0990978,59.2490484 49.6349895,60.3191339 52.1924764,61.3383364 C52.5349143,61.4755663 53.0130934,61.4385605 53.3832966,61.3306268 C57.4740416,60.1248532 60.1287068,57.4604329 61.3102719,53.3620362 C61.4167053,52.9935198 61.4228753,52.5201534 61.2840491,52.1716818 C60.2783305,49.6568267 59.2232515,47.1620164 58.1928527,44.6810833 Z M58.0509415,99.6995137 C59.2139964,96.9068064 60.2629054,94.4107626 61.2871342,91.903617 C61.4012801,91.6229894 61.4552681,91.271434 61.4012801,90.9753872 C60.7117767,87.1899984 56.6858173,83.1794906 53.0084659,82.5917145 C52.8326194,82.5624183 52.6259226,82.5346639 52.4716713,82.5981906 C49.8293462,83.6759856 47.1916486,84.7691998 44.2901813,85.9672638 C50.159444,89.3964715 54.5957119,93.8695522 58.0509415,99.6995137 Z M66.1182855,72.0237722 C62.8142222,70.6560981 59.9096699,69.4534083 57.1285186,68.3016016 L57.1285186,75.7567362 C59.9266375,74.5941361 62.8327324,73.3883625 66.1182855,72.0237722 Z M75.7281427,86.887784 C74.5589177,84.0784241 73.3465023,81.1639059 71.9921757,77.9061586 C70.6301366,81.1996782 69.4254338,84.1154299 68.277804,86.887784 L75.7281427,86.887784 Z M71.9998883,66.138302 C73.3372472,62.9126264 74.5265249,60.0446739 75.6942074,57.2260625 L68.283974,57.2260625 C69.4778792,60.0893893 70.6656144,62.9388389 71.9998883,66.138302 Z M86.8003024,68.312395 C83.9327703,69.5089171 81.0680148,70.7069811 77.8845761,72.0376494 C81.1377364,73.3818865 83.9898433,74.5629895 86.8003024,75.725898 L86.8003024,68.312395 Z M64.1253584,85.1037942 C65.2544781,82.3653622 66.4422133,79.4866163 67.6299484,76.6075621 C67.5312276,76.5381761 67.4340492,76.4690986 67.3368709,76.4009461 C64.481679,77.5885252 61.6280296,78.7754874 58.924004,79.8998482 C60.685554,81.6637931 62.383861,83.361436 64.1253584,85.1037942 Z M67.3384134,67.644748 C67.4294217,67.5522334 67.5219725,67.4597188 67.6145233,67.3672042 C66.4298731,64.5131289 65.2436805,61.6605955 64.1238159,58.963795 C62.3499258,60.72774 60.6331086,62.4361762 58.9039513,64.1554058 C61.6635074,65.2964192 64.5017317,66.4713545 67.3384134,67.644748 Z M76.6659907,76.4074222 C76.5657273,76.4891434 76.465464,76.5708646 76.3667431,76.6541278 C77.5483082,79.5020354 78.7298733,82.3499431 79.5288952,84.2788724 C81.0541322,82.7526899 82.7573753,81.050113 84.2520706,79.5575442 C82.3378117,78.7619186 79.5011299,77.5835911 76.6659907,76.4074222 Z M84.2212203,64.5069613 C82.7388651,63.005141 81.0343881,61.27666 79.5288952,59.7501691 C78.7036506,61.7561939 77.5313406,64.6025597 76.2001517,67.8344029 C79.4918749,66.4698126 82.3300991,65.2917934 84.2212203,64.5069613 Z" id="symmetry_web" fill="#BCBCBC"></path>
    </g>
</svg>