<?xml version="1.0" encoding="UTF-8"?>
<svg width="144px" height="144px" viewBox="0 0 144 144" version="1.1" xmlns="http://www.w3.org/2000/svg" xmlns:xlink="http://www.w3.org/1999/xlink">
    <!-- Generator: Sketch 42 (36781) - http://www.bohemiancoding.com/sketch -->
    <title>symmetry_shadow_active</title>
    <desc>Created with Sketch.</desc>
    <defs></defs>
    <g id="brush" stroke="none" stroke-width="1" fill="none" fill-rule="evenodd">
        <g id="symmetry_shadow_active" transform="translate(0.000000, 0.000000)">
            <path d="M129.716571,75.3420926 L140.171697,75.3420926 C142.070118,75.3420926 143.608134,73.8021206 143.608134,71.9010379 C143.608134,69.9999551 142.070118,68.4595792 140.171697,68.4595792 L129.294857,68.4595792 L142.852639,56.2003927 C144.259966,54.925195 144.371294,52.7476241 143.097882,51.3379187 C141.826487,49.9284151 139.654185,49.8169313 138.246252,51.092129 L119.127529,68.3828331 C119.060168,68.4096942 118.991193,68.4290827 118.92605,68.4595792 L109.822992,68.4595792 L123.380975,56.2003927 C124.788303,54.925195 124.899429,52.7476241 123.626017,51.3379187 C122.354622,49.9284151 120.182118,49.8169313 118.774588,51.092129 L100.890353,67.2649649 C100.077378,62.1724544 97.9718319,57.5137616 94.8919664,53.6499972 L106.141109,42.3854811 C107.483294,41.0412118 107.483294,38.863641 106.141109,37.5191697 C104.798723,36.1751024 102.624202,36.1751024 101.281613,37.5191697 L90.0058487,48.8107489 C86.1591933,45.7958373 81.5530084,43.737021 76.5172437,42.9497672 L92.4586891,25.2749285 C93.730084,23.865425 93.6187563,21.6876522 92.2112269,20.4128583 C90.8034958,19.1414979 88.6309916,19.2491445 87.3575798,20.6622833 L75.2476639,34.0930603 L75.2476639,24.8600954 L92.4586891,5.77211781 C93.730084,4.36261431 93.6187563,2.18888079 92.2112269,0.913683029 C90.8018824,-0.361312763 88.6309916,-0.250232819 87.3575798,1.15947265 L75.2476639,14.5902496 L75.2476639,3.4410547 C75.2476639,1.54380926 73.7076303,0 71.8114286,0 C69.9128067,0 68.3749916,1.54380926 68.3749916,3.4410547 L68.3749916,14.4599832 L56.3800336,1.15987658 C55.1086387,-0.249626928 52.9341176,-0.360908836 51.5265882,0.914086957 C50.1190588,2.18908275 50.0077311,4.36301823 51.2791261,5.77252174 L68.3749916,24.7302328 L68.3749916,33.9629958 L56.3800336,20.6626872 C55.1086387,19.2531837 52.9341176,19.1419018 51.5265882,20.4132623 C50.1190588,21.6882581 50.0077311,23.8660309 51.2791261,25.2753324 L67.2510252,42.9847069 C62.2134454,43.8143731 57.6054454,45.9151978 53.773916,48.9761571 L42.3351933,37.5193717 C40.9928067,36.1753043 38.8164706,36.1753043 37.4758992,37.5193717 C36.1335126,38.8638429 36.1335126,41.0412118 37.4758992,42.385683 L48.9432605,53.8691276 C46.2816807,57.2756466 44.3467563,61.2700813 43.3954286,65.6407742 L27.3083697,51.092331 C25.9008403,49.8171332 23.7281345,49.9284151 22.4547227,51.3381206 C21.1815126,52.7476241 21.2926387,54.9253969 22.7021849,56.2005947 L36.2579496,68.4597812 L27.1548908,68.4597812 C27.091563,68.4292847 27.0225882,68.4098962 26.9554286,68.3830351 L7.8365042,51.092331 C6.42897479,49.8171332 4.25626891,49.9284151 2.98285714,51.3381206 C1.70944538,52.7478261 1.82077311,54.9253969 3.23031933,56.2005947 L16.786084,68.4597812 L3.45156303,68.4597812 C1.55314286,68.4597812 0.0149243697,69.9999551 0.0149243697,71.9012398 C0.0149243697,73.8025245 1.55294118,75.3422945 3.45156303,75.3422945 L16.3647731,75.3422945 L3.23092437,87.2213857 C1.82137815,88.4925442 1.71005042,90.670115 2.98346218,92.0798205 C3.66231933,92.8325386 4.59630252,93.2168752 5.53391597,93.2168752 C6.35455462,93.2168752 7.17922689,92.9209986 7.83690756,92.3294474 L26.6202353,75.3420926 L35.836437,75.3420926 L22.7025882,87.2213857 C21.293042,88.4925442 21.1817143,90.670115 22.4551261,92.0798205 C23.1339832,92.8325386 24.0679664,93.2168752 25.0055798,93.2168752 C25.8262185,93.2168752 26.6508908,92.9209986 27.3085714,92.3294474 L43.3151597,77.854115 C44.2434958,82.3437644 46.2185546,86.4454418 48.9452773,89.9329481 L37.4758992,101.416393 C36.1335126,102.756623 36.1335126,104.938233 37.4758992,106.282502 C38.1470924,106.954637 39.0272269,107.288684 39.9055462,107.288684 C40.7838655,107.288684 41.664,106.954637 42.3351933,106.282502 L53.7759328,94.8257167 C57.4826218,97.786906 61.9163697,99.8568303 66.7659832,100.736785 L51.2791261,117.912168 C50.0077311,119.321672 50.1190588,121.499243 51.5265882,122.770805 C52.1842689,123.36579 53.0069244,123.657829 53.8277647,123.657829 C54.767395,123.657829 55.7013782,123.277532 56.3800336,122.524813 L68.3749916,109.224707 L68.3749916,118.453633 L51.2791261,137.411142 C50.0077311,138.820645 50.1190588,140.998418 51.5265882,142.269778 C52.1824538,142.864965 53.0069244,143.156802 53.8277647,143.156802 C54.767395,143.156802 55.7013782,142.776707 56.3800336,142.023989 L68.3749916,128.723882 L68.3749916,140.356982 C68.3749916,142.254429 69.9128067,143.798238 71.8114286,143.798238 C73.7076303,143.798238 75.2476639,142.254227 75.2476639,140.356982 L75.2476639,128.593212 L87.3575798,142.023989 C88.036437,142.776909 88.9704202,143.156802 89.9100504,143.156802 C90.7306891,143.156802 91.5553613,142.865167 92.2112269,142.269778 C93.6187563,140.998418 93.7298824,138.820847 92.4586891,137.411142 L75.2476639,118.322962 L75.2476639,109.093835 L87.3575798,122.524612 C88.036437,123.277532 88.9704202,123.657627 89.9100504,123.657627 C90.7306891,123.657627 91.5553613,123.36579 92.2112269,122.770603 C93.6187563,121.499041 93.7298824,119.32147 92.4586891,117.911966 L77.0043025,100.770917 C81.8484706,99.9297391 86.2820168,97.9058626 90.0058487,94.9868836 L101.281613,106.278463 C101.952807,106.950396 102.832941,107.288482 103.713479,107.288482 C104.591597,107.288482 105.471933,106.950396 106.141109,106.278463 C107.483294,104.937829 107.483294,102.756421 106.141109,101.412151 L94.8919664,90.1476353 C98.0369748,86.1992482 100.169546,81.4218008 100.94037,76.2020533 L118.774588,92.3292454 C119.430252,92.9207966 120.254924,93.2166732 121.075765,93.2166732 C122.01358,93.2166732 122.949378,92.8323366 123.626017,92.0796185 C124.899429,90.670115 124.788303,88.4923422 123.380975,87.2211837 L110.244908,75.3418906 L119.461109,75.3418906 L138.246252,92.3292454 C138.902118,92.9207966 139.72679,93.2166732 140.54763,93.2166732 C141.485244,93.2166732 142.418824,92.8323366 143.097882,92.0796185 C144.371294,90.670115 144.259966,88.4923422 142.852639,87.2211837 L129.716571,75.3420926 Z M94.1267899,68.4595792 L80.1051429,68.4595792 L89.9907227,58.5623562 C92.1095798,61.4197363 93.5594622,64.7919215 94.1267899,68.4595792 Z M75.2478655,63.5936718 L75.2478655,49.7094867 C78.8914286,50.2432763 82.247395,51.6491445 85.104605,53.7190687 L75.2478655,63.5936718 Z M75.2478655,94.0883478 L75.2478655,80.2084039 L85.1027899,90.0787658 C82.247395,92.1492959 78.8914286,93.5547602 75.2478655,94.0883478 Z M80.1051429,75.3420926 L94.1267899,75.3420926 C93.5594622,79.0099523 92.107563,82.3819355 89.990521,85.2397195 L80.1051429,75.3420926 Z M49.6949244,68.217223 L63.7165714,68.217223 L53.8309916,58.32 C51.7121345,61.1773801 50.2622521,64.5495652 49.6949244,68.217223 Z M68.1916639,63.5641851 L68.1916639,49.68 C64.5481008,50.2137896 61.1921345,51.6196578 58.3349244,53.689582 L68.1916639,63.5641851 Z M68.1898487,94.1599439 L68.1898487,80.28 L58.3349244,90.1503619 C61.1903193,92.220892 64.5462857,93.6263562 68.1898487,94.1599439 Z M63.7165714,75.6 L49.6949244,75.6 C50.2622521,79.2678597 51.7141513,82.6398429 53.8311933,85.4976269 L63.7165714,75.6 Z" id="Shape" fill="#7E57C2"></path>
            <path d="M70.7639481,143.64 C69.3702403,143.200392 68.3600672,141.894837 68.3600672,140.356982 L68.3600672,128.723882 L56.3651092,142.023989 C55.6864538,142.776707 54.7524706,143.156802 53.8128403,143.156802 C52.992,143.156802 52.1675294,142.864965 51.5116639,142.269778 C50.1041345,140.998418 49.9928067,138.820645 51.2642017,137.411142 L68.3600672,118.453633 L68.3600672,109.224707 L56.3651092,122.524813 C55.6864538,123.277532 54.7524706,123.657829 53.8128403,123.657829 C52.992,123.657829 52.1693445,123.36579 51.5116639,122.770805 C50.1041345,121.499243 49.9928067,119.321672 51.2642017,117.912168 L66.7510588,100.736785 C61.9014454,99.8568303 57.4676975,97.786906 53.7610084,94.8257167 L42.3202689,106.282502 C41.6490756,106.954637 40.7689412,107.288684 39.8906218,107.288684 C39.0123025,107.288684 38.1321681,106.954637 37.4609748,106.282502 C36.1185882,104.938233 36.1185882,102.756623 37.4609748,101.416393 L48.9303529,89.9329481 C46.2036303,86.4454418 44.2285714,82.3437644 43.3002353,77.854115 L27.2936471,92.3294474 C26.6359664,92.9209986 25.8112941,93.2168752 24.9906555,93.2168752 C24.053042,93.2168752 23.1190588,92.8325386 22.4402017,92.0798205 C21.1667899,90.670115 21.2781176,88.4925442 22.6876639,87.2213857 L35.8215126,75.3420926 L26.6053109,75.3420926 L7.82198319,92.3294474 C7.16430252,92.9209986 6.33963025,93.2168752 5.5189916,93.2168752 C4.58137815,93.2168752 3.64739496,92.8325386 2.96853782,92.0798205 C1.69512605,90.670115 1.80645378,88.4925442 3.216,87.2213857 L16.3498487,75.3422945 L3.43663866,75.3422945 C1.53801681,75.3422945 0,73.8025245 0,71.9012398 C0,69.9999551 1.53821849,68.4597812 3.43663866,68.4597812 L16.7711597,68.4597812 L3.21539496,56.2005947 C1.80584874,54.9253969 1.69452101,52.7478261 2.96793277,51.3381206 C4.24134454,49.9284151 6.41405042,49.8171332 7.82157983,51.092331 L26.9405042,68.3830351 C27.0076639,68.4098962 27.0766387,68.4292847 27.1399664,68.4597812 L36.2430252,68.4597812 L22.6872605,56.2005947 C21.2777143,54.9253969 21.1665882,52.7476241 22.4397983,51.3381206 C23.7132101,49.9284151 25.885916,49.8171332 27.2934454,51.092331 L43.3805042,65.6407742 C44.3318319,61.2700813 46.2667563,57.2756466 48.9283361,53.8691276 L37.4609748,42.385683 C36.1185882,41.0412118 36.1185882,38.8638429 37.4609748,37.5193717 C38.8015462,36.1753043 40.9778824,36.1753043 42.3202689,37.5193717 L53.7589916,48.9761571 C57.590521,45.9151978 62.198521,43.8143731 67.2361008,42.9847069 L51.2642017,25.2753324 C49.9928067,23.8660309 50.1041345,21.6882581 51.5116639,20.4132623 C52.9191933,19.1419018 55.0937143,19.2531837 56.3651092,20.6626872 L68.3600672,33.9629958 L68.3600672,24.7302328 L51.2642017,5.77252174 C49.9928067,4.36301823 50.1041345,2.18908275 51.5116639,0.914086957 C52.9191933,-0.360908836 55.0937143,-0.249626928 56.3651092,1.15987658 L68.3600672,14.4599832 L68.3600672,3.4410547 C68.3600672,1.54380926 69.8978824,0 71.7965042,0 C71.8648168,0 71.9326672,0.0020036728 72,0.00595535974 L72,143.64 L70.7639481,143.64 Z M68.3751933,80.2086059 L58.6795966,89.9135596 C61.4833613,91.9990351 64.7834622,93.439237 68.3751933,94.0307882 L68.3751933,80.2086059 Z M49.8717983,75.3420926 C50.4260168,78.9178569 51.8143866,82.2092567 53.8471261,85.020791 L63.5138824,75.3420926 L49.8717983,75.3420926 Z M63.5136807,68.4595792 L53.8467227,58.7772454 C51.8141849,61.5887798 50.4260168,64.8840168 49.8715966,68.4595792 L63.5136807,68.4595792 Z M68.3751933,49.7672482 C64.7834622,50.3585975 61.4831597,51.7990014 58.6777815,53.8842749 L68.3751933,63.5934698 L68.3751933,49.7672482 Z" id="Combined-Shape" fill="#B288FB"></path>
        </g>
    </g>
</svg>