<?xml version="1.0" encoding="UTF-8" standalone="no"?>
<svg width="13px" height="13px" viewBox="0 0 13 13" version="1.1" xmlns="http://www.w3.org/2000/svg" xmlns:xlink="http://www.w3.org/1999/xlink">
    <!-- Generator: Sketch 39.1 (31720) - http://www.bohemiancoding.com/sketch -->
    <title>delete_grey</title>
    <desc>Created with Sketch.</desc>
    <defs>
        <path d="M175.313708,98.3137085 L181.312837,98.3137085 C181.869078,98.3137085 182.313708,97.8659932 182.313708,97.3137085 C182.313708,96.7575733 181.865603,96.3137085 181.312837,96.3137085 L175.313708,96.3137085 L175.313708,90.3145802 C175.313708,89.7583394 174.865993,89.3137085 174.313708,89.3137085 C173.757573,89.3137085 173.313708,89.761814 173.313708,90.3145802 L173.313708,96.3137085 L167.31458,96.3137085 C166.758339,96.3137085 166.313708,96.7614237 166.313708,97.3137085 C166.313708,97.8698437 166.761814,98.3137085 167.31458,98.3137085 L173.313708,98.3137085 L173.313708,104.312837 C173.313708,104.869078 173.761424,105.313708 174.313708,105.313708 C174.869844,105.313708 175.313708,104.865603 175.313708,104.312837 L175.313708,98.3137085 Z" id="path-1"></path>
        <mask id="mask-2" maskContentUnits="userSpaceOnUse" maskUnits="objectBoundingBox" x="0" y="0" width="16" height="16" fill="white">
            <use xlink:href="#path-1"></use>
        </mask>
    </defs>
    <g id="Прототип_v2" stroke="none" stroke-width="1" fill="none" fill-rule="evenodd">
        <g id="ic" transform="translate(-168.000000, -91.000000)" stroke="#DFDFDF" stroke-width="2" fill="#FFFFFF">
            <use id="delete_grey" mask="url(#mask-2)" transform="translate(174.313708, 97.313708) rotate(45.000000) translate(-174.313708, -97.313708) " xlink:href="#path-1"></use>
        </g>
    </g>
</svg>