<?xml version="1.0" encoding="UTF-8"?>
<svg width="24px" height="24px" viewBox="0 0 24 24" version="1.1" xmlns="http://www.w3.org/2000/svg" xmlns:xlink="http://www.w3.org/1999/xlink">
    <!-- Generator: Sketch 42 (36781) - http://www.bohemiancoding.com/sketch -->
    <title>ic_done</title>
    <desc>Created with Sketch.</desc>
    <defs></defs>
    <g id="IC_ver_3" stroke="none" stroke-width="1" fill="none" fill-rule="evenodd">
        <polygon id="ic_done" fill="#7E57C2" points="8.6 15.6 4.4 11.4 3 12.8 8.6 18.4 20.6 6.4 19.2 5"></polygon>
    </g>
</svg>