<?xml version="1.0" encoding="UTF-8"?>
<svg width="24px" height="24px" viewBox="0 0 24 24" version="1.1" xmlns="http://www.w3.org/2000/svg" xmlns:xlink="http://www.w3.org/1999/xlink">
    <!-- Generator: Sketch 41.2 (35397) - http://www.bohemiancoding.com/sketch -->
    <title>ic_delete_unactive</title>
    <desc>Created with Sketch.</desc>
    <defs></defs>
    <g id="IC_ver_2" stroke="none" stroke-width="1" fill="none" fill-rule="evenodd">
        <path d="M6,19 C6,20.1 6.9,21 8,21 L16,21 C17.1,21 18,20.1 18,19 L18,7 L6,7 L6,19 Z M19,4 L15.5,4 L14.5,3 L9.5,3 L8.5,4 L5,4 L5,6 L19,6 L19,4 Z" id="ic_delete_unactive" fill="#D9D9D9"></path>
    </g>
</svg>