<?xml version="1.0" encoding="UTF-8"?>
<svg width="24px" height="24px" viewBox="0 0 24 24" version="1.1" xmlns="http://www.w3.org/2000/svg" xmlns:xlink="http://www.w3.org/1999/xlink">
    <!-- Generator: Sketch 41.2 (35397) - http://www.bohemiancoding.com/sketch -->
    <title>ic_forward_unactive</title>
    <desc>Created with Sketch.</desc>
    <defs></defs>
    <g id="IC_ver_2" stroke="none" stroke-width="1" fill="none" fill-rule="evenodd">
        <path d="M18.86,10.6 C17.01,8.99 14.61,8 11.96,8 C7.31,8 3.38,11.03 2,15.22 L4.36,16 C5.41,12.81 8.41,10.5 11.96,10.5 C13.91,10.5 15.69,11.22 17.08,12.38 L13.46,16 L22.46,16 L22.46,7 L18.86,10.6 Z" id="ic_forward_unactive" fill="#D9D9D9"></path>
    </g>
</svg>