<?xml version="1.0" encoding="UTF-8"?>
<svg width="24px" height="24px" viewBox="0 0 24 24" version="1.1" xmlns="http://www.w3.org/2000/svg" xmlns:xlink="http://www.w3.org/1999/xlink">
    <!-- Generator: Sketch 41.2 (35397) - http://www.bohemiancoding.com/sketch -->
    <title>ic_fullscreen</title>
    <desc>Created with Sketch.</desc>
    <defs></defs>
    <g id="IC_ver_2" stroke="none" stroke-width="1" fill="none" fill-rule="evenodd">
        <path d="M6.28571429,14.2857143 L4,14.2857143 L4,20 L9.71428571,20 L9.71428571,17.7142857 L6.28571429,17.7142857 L6.28571429,14.2857143 Z M4,9.71428571 L6.28571429,9.71428571 L6.28571429,6.28571429 L9.71428571,6.28571429 L9.71428571,4 L4,4 L4,9.71428571 Z M17.7142857,17.7142857 L14.2857143,17.7142857 L14.2857143,20 L20,20 L20,14.2857143 L17.7142857,14.2857143 L17.7142857,17.7142857 Z M14.2857143,4 L14.2857143,6.28571429 L17.7142857,6.28571429 L17.7142857,9.71428571 L20,9.71428571 L20,4 L14.2857143,4 Z" id="ic_fullscreen" fill=DefaultAppColor></path>
    </g>
</svg>