<?xml version="1.0" encoding="UTF-8"?>
<svg width="24px" height="24px" viewBox="0 0 24 24" version="1.1" xmlns="http://www.w3.org/2000/svg" xmlns:xlink="http://www.w3.org/1999/xlink">
    <!-- Generator: Sketch 42 (36781) - http://www.bohemiancoding.com/sketch -->
    <title>ic_rate</title>
    <desc>Created with Sketch.</desc>
    <defs></defs>
    <g id="IC_ver_3" stroke="none" stroke-width="1" fill="none" fill-rule="evenodd">
        <polygon id="rate" fill="#7E57C2" fill-rule="nonzero" points="12 17.1333333 18.8016667 22.0833333 16.1983333 14.09 23 9.25 14.6583333 9.25 12 1 9.34166667 9.25 1 9.25 7.80166667 14.09 5.19833333 22.0833333"></polygon>
    </g>
</svg>