<?xml version="1.0" encoding="UTF-8"?>
<svg width="40px" height="40px" viewBox="0 0 40 40" version="1.1" xmlns="http://www.w3.org/2000/svg" xmlns:xlink="http://www.w3.org/1999/xlink">
    <!-- Generator: Sketch 41.2 (35397) - http://www.bohemiancoding.com/sketch -->
    <title>instagram</title>
    <desc>Created with Sketch.</desc>
    <defs>
        <linearGradient x1="21.3192187%" y1="90.9614844%" x2="78.6816406%" y2="9.039375%" id="linearGradient-1">
            <stop stop-color="#FFB900" offset="0%"></stop>
            <stop stop-color="#9100EB" offset="100%"></stop>
        </linearGradient>
    </defs>
    <g id="IC_ver_2" stroke="none" stroke-width="1" fill="none" fill-rule="evenodd">
        <g id="instagram">
            <circle id="Oval" fill="url(#linearGradient-1)" cx="20" cy="20" r="20"></circle>
            <g id="Group" transform="translate(7.500000, 7.500000)" fill="#FFFFFF">
                <path d="M18.2290625,25 L6.7709375,25 C3.0375,25 0,21.9628125 0,18.2290625 L0,6.7709375 C0,3.0371875 3.0375,0 6.7709375,0 L18.2290625,0 C21.9628125,0 25,3.0371875 25,6.7709375 L25,18.229375 C25,21.9628125 21.9628125,25 18.2290625,25 Z M6.7709375,2.0834375 C4.18625,2.0834375 2.0834375,4.18625 2.0834375,6.7709375 L2.0834375,18.229375 C2.0834375,20.8140625 4.18625,22.916875 6.7709375,22.916875 L18.2290625,22.916875 C20.81375,22.916875 22.9165625,20.8140625 22.9165625,18.229375 L22.9165625,6.7709375 C22.9165625,4.18625 20.81375,2.0834375 18.2290625,2.0834375 L6.7709375,2.0834375 Z" id="Shape"></path>
                <path d="M12.5,18.75 C9.05375,18.75 6.25,15.9459375 6.25,12.5 C6.25,9.0534375 9.05375,6.25 12.5,6.25 C15.94625,6.25 18.75,9.0534375 18.75,12.5 C18.75,15.9459375 15.94625,18.75 12.5,18.75 Z M12.5,8.3334375 C10.2025,8.3334375 8.3334375,10.2025 8.3334375,12.5 C8.3334375,14.7978125 10.2025,16.6665625 12.5,16.6665625 C14.7975,16.6665625 16.6665625,14.7978125 16.6665625,12.5 C16.6665625,10.2025 14.7978125,8.3334375 12.5,8.3334375 Z" id="Shape"></path>
                <ellipse id="Oval" cx="19.140625" cy="5.859375" rx="1.4321875" ry="1.4321875"></ellipse>
            </g>
        </g>
    </g>
</svg>