<?xml version="1.0" encoding="UTF-8"?>
<svg width="40px" height="40px" viewBox="0 0 40 40" version="1.1" xmlns="http://www.w3.org/2000/svg" xmlns:xlink="http://www.w3.org/1999/xlink">
    <!-- Generator: Sketch 41.2 (35397) - http://www.bohemiancoding.com/sketch -->
    <title>twitter</title>
    <desc>Created with Sketch.</desc>
    <defs></defs>
    <g id="IC_ver_2" stroke="none" stroke-width="1" fill="none" fill-rule="evenodd">
        <g id="twitter">
            <circle id="Oval" fill="#55ACEE" cx="20" cy="20" r="20"></circle>
            <path d="M32.8125,12.5590625 C31.8928125,12.9671875 30.9046875,13.2428125 29.86625,13.3665625 C30.925625,12.731875 31.738125,11.7265625 32.1215625,10.5290625 C31.130625,11.116875 30.0328125,11.54375 28.8646875,11.77375 C27.9290625,10.776875 26.5959375,10.15375 25.12125,10.15375 C22.2884375,10.15375 19.991875,12.4503125 19.991875,15.2825 C19.991875,15.6846875 20.0375,16.0759375 20.125,16.4515625 C15.861875,16.2375 12.0828125,14.195625 9.553125,11.0928125 C9.1115625,11.85 8.8584375,12.73125 8.8584375,13.67125 C8.8584375,15.450625 9.7640625,17.020625 11.1403125,17.9403125 C10.2996875,17.91375 9.5084375,17.6828125 8.8171875,17.2984375 C8.8165625,17.32 8.8165625,17.3415625 8.8165625,17.363125 C8.8165625,19.84875 10.584375,21.920625 12.9309375,22.3921875 C12.5003125,22.509375 12.0475,22.571875 11.5796875,22.571875 C11.2490625,22.571875 10.9278125,22.5396875 10.6146875,22.4796875 C11.2675,24.5175 13.1615625,26.0009375 15.4059375,26.041875 C13.650625,27.4171875 11.4390625,28.236875 9.0359375,28.236875 C8.621875,28.236875 8.2134375,28.213125 7.8125,28.1653125 C10.0821875,29.620625 12.77875,30.4696875 15.675,30.4696875 C25.10875,30.4696875 30.2678125,22.6540625 30.2678125,15.8765625 C30.2678125,15.654375 30.2621875,15.4328125 30.2525,15.213125 C31.255625,14.4909375 32.1246875,13.5875 32.8125,12.5590625" id="Shape" fill="#FFFFFF"></path>
        </g>
    </g>
</svg>