<?xml version="1.0" encoding="UTF-8"?>
<svg width="28px" height="28px" viewBox="0 0 28 28" version="1.1" xmlns="http://www.w3.org/2000/svg" xmlns:xlink="http://www.w3.org/1999/xlink">
    <!-- Generator: Sketch 42 (36781) - http://www.bohemiancoding.com/sketch -->
    <title>back_violet</title>
    <desc>Created with Sketch.</desc>
    <defs></defs>
    <g id="ic_app_iOS" stroke="none" stroke-width="1" fill="none" fill-rule="evenodd">
        <polygon id="Shape" fill="#7E57C2" fill-rule="nonzero" points="21 22.415 12.3468286 14 21 5.585 18.3360324 3 7 14 18.3360324 25"></polygon>
    </g>
</svg>