{
  "project_info": {
    "project_number": "401475057645",
    "project_id": "art-break"
  },
  "client": [
    {
      "client_info": {
        "mobilesdk_app_id": "1:401475057645:android:be1de8570c0d26e7",
        "android_client_info": {
          "package_name": "com.tarasovmobile.artbreak"
        }
      },
      "oauth_client": [],
      "api_key": [
        {
          "current_key": "AIzaSyCN_HR8RFxqZqmEeZ0-4aCLNlP0pIa7v8o"
        }
      ],
      "services": {
        "analytics_service": {
          "status": 2,
          "analytics_property": {
            "tracking_id": "UA-89808827-1"
          }
        },
        "appinvite_service": {
          "status": 1,
          "other_platform_oauth_client": []
        },
        "ads_service": {
          "status": 1
        }
      }
    }
  ],
  "configuration_version": "1"
}