<?xml version="1.0" encoding="UTF-8"?>
<svg width="17px" height="18px" viewBox="0 0 17 18" version="1.1" xmlns="http://www.w3.org/2000/svg" xmlns:xlink="http://www.w3.org/1999/xlink">
    <!-- Generator: Sketch 43.2 (39069) - http://www.bohemiancoding.com/sketch -->
    <title>hands</title>
    <desc>Created with Sketch.</desc>
    <defs></defs>
    <g id="ic_app_iOS" stroke="none" stroke-width="1" fill="none" fill-rule="evenodd">
        <g id="hands" fill-rule="nonzero">
            <path d="M12.8236721,7.77452459 C12.8236721,7.77452459 11.4937377,6.6682623 10.7873115,5.63193443 C10.5246885,5.24803279 9.6724918,5.29554098 9.37622951,6.03619672 L4.76763934,7.81288525 L1.72859016,6.17340984 C1.24819672,5.88718033 0.636786885,6.0937377 0.361180328,6.63403279 L0.35704918,6.64288525 C0.0823278689,7.18465574 0.249344262,7.85390164 0.729737705,8.13983607 L1.19891803,8.41927869 C0.788163934,8.3455082 0.356163934,8.55855738 0.136918033,8.98937705 L0.132196721,8.99881967 C-0.14252459,9.53970492 0.0247868852,10.209541 0.504590164,10.4954754 L1.5544918,11.1213443 C1.07380328,10.8351148 0.462098361,11.041377 0.187672131,11.5819672 L0.18295082,11.5914098 C-0.0920655738,12.1325902 0.0758360656,12.8018361 0.55652459,13.0883607 C0.55652459,13.0883607 5.90045902,16.3876721 7.74059016,17.380623 C9.19652459,18.1661311 12.0561639,18.547377 13.8576393,16.3738033 C14.518623,15.5764918 12.8236721,7.77452459 12.8236721,7.77452459 L12.8236721,7.77452459 Z" id="Shape" fill="#D99B57"></path>
            <path d="M15.0465246,7.75534426 C14.0954754,7.10704918 13.4572131,6.2492459 12.9797705,4.95236066 C12.8136393,4.50118033 12.1567869,4.43183607 11.7779016,5.15862295 C11.2308197,6.20704918 11.7563607,7.06868852 12.0461311,7.44668852 L12.1851148,7.62462295 C12.1851148,7.62462295 12.2639016,7.94862295 12.423541,8.34639344 C11.6383279,8.16403279 10.7383279,8.60842623 10.1095082,9.4384918 C9.45944262,10.2980656 7.92560656,11.7784918 7.27554098,12.6368852 C6.49121311,13.6740984 6.6992459,15.1554098 7.57770492,15.7904262 C7.57770492,15.7904262 12.2060656,19.1747213 15.2879016,15.0291148 C17.6993115,11.7849836 16.0076066,8.41042623 15.0465246,7.75534426 L15.0465246,7.75534426 Z" id="Shape" fill="#FFDD67"></path>
            <path d="M13.4852459,9.00383607 C13.9567869,9.34406557 14.065082,10.0451803 13.7278033,10.5686557 L13.7216066,10.5778033 C13.384918,11.1021639 12.7298361,11.2502951 12.2577049,10.9106557 L4.90809836,5.60213115 C4.4362623,5.26219672 4.32767213,4.56167213 4.6652459,4.03701639 L4.67055738,4.02786885 C5.00842623,3.50439344 5.66262295,3.35508197 6.13563934,3.69501639 L13.4852459,9.00383607 Z" id="Shape" fill="#FFDD67"></path>
            <path d="M9.67868852,8.41809836 L4.98511475,5.02908197 C4.72927869,4.84436066 4.54691803,4.56462295 4.62216393,4.10990164 C4.28370492,4.69563934 4.49144262,5.30114754 4.90131148,5.59770492 L9.59606557,8.98642623 C10.0670164,9.32783607 10.1496393,8.75832787 9.67868852,8.41809836 L9.67868852,8.41809836 Z" id="Shape" fill="#EBA352"></path>
            <path d="M11.0826885,10.0227541 C11.5542295,10.3629836 11.6625246,11.0638033 11.3261311,11.5875738 L11.3202295,11.5967213 C10.9823607,12.1204918 10.3272787,12.2692131 9.85603279,11.9292787 L2.50583607,6.62134426 C2.034,6.28111475 1.92540984,5.58088525 2.26239344,5.05622951 L2.26859016,5.04737705 C2.60616393,4.52360656 3.26065574,4.37429508 3.7324918,4.71540984 L11.0826885,10.0227541 L11.0826885,10.0227541 Z" id="Shape" fill="#FFDD67"></path>
            <path d="M8.25639344,10.1452131 L2.5822623,6.04829508 C2.29364928,5.84020532 2.15110882,5.48419904 2.21636066,5.13442623 C1.88232787,5.72577049 2.06144262,6.36963934 2.47190164,6.6664918 L8.17318033,10.7138361 C8.64413115,11.0543607 8.72704918,10.4854426 8.25639344,10.1452131 Z" id="Shape" fill="#EBA352"></path>
            <path d="M10.6229508,12.4037705 C11.0944918,12.744 11.2027869,13.446 10.8658033,13.9703607 L10.8599016,13.978918 C10.5232131,14.5026885 9.8672459,14.6514098 9.396,14.3105902 L2.04639344,9.00354098 C1.5742623,8.66331148 1.46567213,7.9624918 1.80265574,7.43754098 L1.80855738,7.42868852 C2.14613115,6.90521311 2.80121311,6.7564918 3.27245902,7.09672131 L10.6229508,12.4037705 Z" id="Shape" fill="#FFDD67"></path>
            <path d="M7.12829508,12.0443607 L2.12252459,8.42960656 C1.86698361,8.24518033 1.67577049,7.84327869 1.80236066,7.4372459 C1.41078689,7.98934426 1.57131148,8.74062295 1.98088525,9.03718033 L7.04508197,12.6135738 C7.51691803,12.9540984 7.5992459,12.3845902 7.12829508,12.0443607 Z" id="Shape" fill="#EBA352"></path>
            <path d="M10.4264262,15.0547869 C10.8979672,15.3947213 7.52429508,15.7526557 7.0527541,15.4118361 L1.85016393,11.6554426 C1.37803279,11.3143279 1.26885246,10.6143934 1.60613115,10.0891475 L1.61203279,10.08 C1.94872131,9.55652459 2.60468852,9.4075082 3.07593443,9.74803279 L10.4264262,15.0547869 L10.4264262,15.0547869 Z" id="Shape" fill="#FFDD67"></path>
            <path d="M16.5006885,11.9711803 C16.5006885,11.9711803 15.9848852,14.5687869 13.9370164,16.1256393 C12.106623,17.5172459 9.27206557,16.3068197 7.92619672,15.4127213 C6.49740984,14.4634426 5.7715082,13.9768525 2.36301639,11.3880984 C1.71944262,10.8988525 1.53767213,10.5491803 1.63859016,10.0407541 C1.13931148,10.5837049 1.39131148,11.3931148 1.80265574,11.6899672 L2.15704918,11.9407869 C2.15704918,11.9407869 6.25278689,14.9385246 7.64203279,15.9031475 C8.89672131,16.7745246 12.1803934,18.1814754 14.2645574,16.5263607 C16.5856721,14.6832787 16.5006885,11.9711803 16.5006885,11.9711803 L16.5006885,11.9711803 Z M12.9797705,8.59927869 C12.3801639,7.97754098 12.3577377,7.0804918 12.3577377,7.0804918 L12.2196393,6.90314754 C11.9894754,6.60245902 11.6111803,5.99960656 11.7374754,5.23947541 C11.178,6.26252459 11.7244918,7.08757377 12.0068852,7.45583607 L12.1505902,7.6417377 C12.1505902,7.6417377 12.124623,7.90288525 12.2574098,8.11681967 L12.9797705,8.59927869 Z" id="Shape" fill="#EBA352"></path>
            <g id="Group" transform="translate(5.606557, 0.000000)" fill="#42ADE2">
                <path d="M4.36632787,0.294786885 L5.25895082,3.89596721 L6.98222951,0.555934426 L4.36632787,0.294786885 Z M8.73678689,1.3564918 L7.40714754,4.35039344 L10.5078689,3.54747541 L8.73678689,1.3564918 Z M2.1337377,0.749213115 L2.96439344,3.96914754 L0.246688525,2.25708197 L2.1337377,0.749213115 Z" id="Shape"></path>
            </g>
        </g>
    </g>
</svg>